\relax 
\providecommand*\new@tpo@label[2]{}
\citation{ferziger2019}
\@writefile{toc}{\contentsline {section}{\numberline {1}Problem Statement}{1}}
\@writefile{toc}{\contentsline {section}{\numberline {2}Finite Volume Method}{1}}
\citation{ferziger2019}
\@writefile{lof}{\contentsline {figure}{\numberline {1}{\ignorespaces Arbitrary two dimensional square control volume (red) with neighbours.}}{2}}
\@writefile{toc}{\contentsline {subsection}{\numberline {2.1}Central Differencing Scheme}{3}}
\@writefile{toc}{\contentsline {subsection}{\numberline {2.2}Upwind Differencing Scheme}{3}}
\@writefile{toc}{\contentsline {subsection}{\numberline {2.3}LUI Scheme}{3}}
\citation{ferziger2019}
\@writefile{toc}{\contentsline {subsection}{\numberline {2.4}Deferred Correction}{4}}
\@writefile{toc}{\contentsline {section}{\numberline {3}Results}{5}}
\@writefile{toc}{\contentsline {subsection}{\numberline {3.1}UDS and CDS Schemes}{5}}
\@writefile{lof}{\contentsline {figure}{\numberline {2}{\ignorespaces UDS scheme with $\Delta = 1/10$.}}{5}}
\@writefile{lof}{\contentsline {figure}{\numberline {3}{\ignorespaces CDS scheme with $\Delta = 1/10$.}}{5}}
\@writefile{lof}{\contentsline {figure}{\numberline {4}{\ignorespaces UDS scheme with $\Delta = 1/50$.}}{6}}
\@writefile{lof}{\contentsline {figure}{\numberline {5}{\ignorespaces CDS scheme with $\Delta = 1/50$.}}{6}}
\@writefile{lof}{\contentsline {figure}{\numberline {6}{\ignorespaces UDS scheme with $\Delta = 1/100$.}}{7}}
\@writefile{lof}{\contentsline {figure}{\numberline {7}{\ignorespaces CDS scheme with $\Delta = 1/100$.}}{7}}
\@writefile{toc}{\contentsline {subsection}{\numberline {3.2}LUI and Deferred Correction}{8}}
\@writefile{toc}{\contentsline {section}{\numberline {4}Python Code}{8}}
\@writefile{lol}{\contentsline {lstlisting}{/home/anton/phd\textendash related\textendash code/cfd\textunderscore course/assignment\textunderscore 2/assignment\textunderscore 2.py}{8}}
\bibcite{ferziger2019}{1}
