\relax 
\providecommand\hyper@newdestlabel[2]{}
\bibstyle{Definitions/mdpi}
\providecommand\HyperFirstAtBeginDocument{\AtBeginDocument}
\HyperFirstAtBeginDocument{\ifx\hyper@anchor\@undefined
\global\let\oldcontentsline\contentsline
\gdef\contentsline#1#2#3#4{\oldcontentsline{#1}{#2}{#3}}
\global\let\oldnewlabel\newlabel
\gdef\newlabel#1#2{\newlabelxx{#1}#2}
\gdef\newlabelxx#1#2#3#4#5#6{\oldnewlabel{#1}{{#2}{#3}}}
\AtEndDocument{\ifx\hyper@anchor\@undefined
\let\contentsline\oldcontentsline
\let\newlabel\oldnewlabel
\fi}
\fi}
\global\let\hyper@last\relax 
\gdef\HyperFirstAtBeginDocument#1{#1}
\providecommand\HyField@AuxAddToFields[1]{}
\providecommand\HyField@AuxAddToCoFields[2]{}
\citation{unfccc}
\citation{regeringskansliet_2019}
\citation{environment_2020}
\citation{finland}
\citation{eu_emission}
\citation{renewable_ec}
\citation{renewable_ec}
\citation{nordic_grid}
\citation{north_sea_link}
\citation{bunn2002basic}
\citation{saltveit2001field}
\citation{halleraker2003factors}
\citation{saltveit2001field}
\citation{halleraker2003factors}
\citation{mckinney2001rainbow}
\citation{choi2018impacts}
\citation{bejarano2018effects}
\citation{gostner2011holistic}
\citation{hydroflex}
\citation{storli2019new}
\citation{burman2019inherent}
\citation{juarez2019performance}
\citation{xie2018understanding}
\citation{williams2013hydraulic}
\citation{horstman2013modeling}
\@writefile{toc}{\contentsline {section}{\numberline {1}Introduction}{1}{section.1}}
\citation{yunus2010fluid}
\citation{ferziger2002computational}
\citation{cushman2011introduction}
\@writefile{toc}{\contentsline {section}{\numberline {2}Theory}{2}{section.2}}
\@writefile{toc}{\contentsline {subsection}{\numberline {2.1}Governing physics}{2}{subsection.2.1}}
\newlabel{eq:ns-momentum}{{1}{2}{Governing physics}{equation.2.1}{}}
\newlabel{eq:ns-cont}{{2}{2}{Governing physics}{equation.2.2}{}}
\citation{deltares}
\citation{deltares}
\citation{richardson1911ix}
\citation{ferziger2002computational}
\citation{celik2008procedure}
\@writefile{toc}{\contentsline {subsection}{\numberline {2.2}Implementations in Delft3D}{3}{subsection.2.2}}
\@writefile{toc}{\contentsline {subsubsection}{\numberline {2.2.1}Physics}{3}{subsubsection.2.2.1}}
\@writefile{toc}{\contentsline {subsubsection}{\numberline {2.2.2}Numerics}{3}{subsubsection.2.2.2}}
\@writefile{toc}{\contentsline {subsection}{\numberline {2.3}Richardson Extrapolation}{3}{subsection.2.3}}
\citation{vattenfall}
\newlabel{eq:representative}{{9}{4}{Richardson Extrapolation}{equation.2.9}{}}
\newlabel{eq:richardson}{{12}{4}{Richardson Extrapolation}{equation.2.12}{}}
\@writefile{toc}{\contentsline {section}{\numberline {3}Materials and Methods}{4}{section.3}}
\@writefile{toc}{\contentsline {subsection}{\numberline {3.1}Study site}{4}{subsection.3.1}}
\@writefile{lof}{\contentsline {figure}{\numberline {1}{\ignorespaces \textbf  {(a)} Position of Stornorrfors in Sweden. \textbf  {(b)} Position of study reach in the lower Ume River. \textbf  {(c)} Key locations in the study reach and the extent of the numerical model.\relax }}{4}{figure.caption.1}}
\providecommand*\caption@xref[2]{\@setref\relax\@undefined{#1}}
\newlabel{fig:stornorrfors}{{1}{4}{\textbf {(a)} Position of Stornorrfors in Sweden. \textbf {(b)} Position of study reach in the lower Ume River. \textbf {(c)} Key locations in the study reach and the extent of the numerical model.\relax }{figure.caption.1}{}}
\citation{angele_validation}
\citation{angele_validation}
\citation{enns1997nonlinear}
\citation{Kumar2011}
\citation{perumal2004reproduction}
\@writefile{toc}{\contentsline {subsection}{\numberline {3.2}Bathymetry and depth measurements}{5}{subsection.3.2}}
\@writefile{lof}{\contentsline {figure}{\numberline {2}{\ignorespaces Field measurements in the study reach: \textbf  {(a)} Digital elevation model of the study reach in meters above sea level (MASL). \textbf  {(b)} WSE in all eight validation points during a typical increase-decrease scenario.\relax }}{5}{figure.caption.2}}
\newlabel{fig:measurements}{{2}{5}{Field measurements in the study reach: \textbf {(a)} Digital elevation model of the study reach in meters above sea level (MASL). \textbf {(b)} WSE in all eight validation points during a typical increase-decrease scenario.\relax }{figure.caption.2}{}}
\@writefile{toc}{\contentsline {subsection}{\numberline {3.3}Scenarios}{5}{subsection.3.3}}
\@writefile{toc}{\contentsline {subsubsection}{\numberline {3.3.1}Hysteresis scenarios}{5}{subsubsection.3.3.1}}
\newlabel{section:hysteresis}{{3.3.1}{5}{Hysteresis scenarios}{subsubsection.3.3.1}{}}
\citation{norrbotten}
\citation{te1959open}
\citation{bakken2016simulation}
\citation{burman2019inherent}
\citation{juarez2019performance}
\citation{bakken2016simulation}
\@writefile{toc}{\contentsline {subsubsection}{\numberline {3.3.2}Hydropeaking scenarios}{6}{subsubsection.3.3.2}}
\@writefile{lof}{\contentsline {figure}{\numberline {3}{\ignorespaces Hydrograph for the six different scenarios under consideration: \textbf  {a)} 10 flow changes per day (top left). \textbf  {b)} 20 flow changes per day (top right). \textbf  {c)} 30 flow changes per day (middle left). \textbf  {(d)} 40 flow changes per day (middle right). \textbf  {(e)} 50 flow changes per day (bottom left). \textbf  {(f)} 60 flow changes per day (bottom right).\relax }}{6}{figure.caption.3}}
\newlabel{fig:hydrograph}{{3}{6}{Hydrograph for the six different scenarios under consideration: \textbf {a)} 10 flow changes per day (top left). \textbf {b)} 20 flow changes per day (top right). \textbf {c)} 30 flow changes per day (middle left). \textbf {(d)} 40 flow changes per day (middle right). \textbf {(e)} 50 flow changes per day (bottom left). \textbf {(f)} 60 flow changes per day (bottom right).\relax }{figure.caption.3}{}}
\@writefile{toc}{\contentsline {subsection}{\numberline {3.4}Calibration}{6}{subsection.3.4}}
\citation{deltares}
\citation{quickin}
\@writefile{lof}{\contentsline {figure}{\numberline {4}{\ignorespaces Outcome of calibration in the study reach. \textbf  {(a)} Correlation plot between validation data and simulated WSE. \textbf  {(b)} Manning number distribution obtained from calibration.\relax }}{7}{figure.caption.4}}
\newlabel{fig:calibration}{{4}{7}{Outcome of calibration in the study reach. \textbf {(a)} Correlation plot between validation data and simulated WSE. \textbf {(b)} Manning number distribution obtained from calibration.\relax }{figure.caption.4}{}}
\@writefile{toc}{\contentsline {subsection}{\numberline {3.5}Model setup}{7}{subsection.3.5}}
\@writefile{toc}{\contentsline {subsection}{\numberline {3.6}Wetted area calculation}{7}{subsection.3.6}}
\newlabel{sec:wetted-area-calc}{{3.6}{7}{Wetted area calculation}{subsection.3.6}{}}
\citation{SciPy}
\citation{SciPy}
\@writefile{toc}{\contentsline {subsection}{\numberline {3.7}Mesh study}{8}{subsection.3.7}}
\@writefile{lot}{\contentsline {table}{\numberline {1}{\ignorespaces Mesh properties for the four different meshes used in the study. Representative size is defined in Equation\nobreakspace  {}\ref  {eq:representative}.\relax }}{8}{table.caption.5}}
\newlabel{tab:mesh}{{1}{8}{Mesh properties for the four different meshes used in the study. Representative size is defined in Equation~\ref {eq:representative}.\relax }{table.caption.5}{}}
\@writefile{lof}{\contentsline {figure}{\numberline {5}{\ignorespaces 400 DPI image files generated for $A_{wetted}$ calculation in the mesh study. The black borders corresponds to $A_{total}$. \textbf  {(a)} Coarse mesh (top left). \textbf  {(b)} Less fine mesh (top right). \textbf  {(c)} Finer mesh (bottom left). \textbf  {(d)} Finest mesh (bottom right).\relax }}{8}{figure.caption.6}}
\newlabel{fig:mesh-area}{{5}{8}{400 DPI image files generated for $A_{wetted}$ calculation in the mesh study. The black borders corresponds to $A_{total}$. \textbf {(a)} Coarse mesh (top left). \textbf {(b)} Less fine mesh (top right). \textbf {(c)} Finer mesh (bottom left). \textbf {(d)} Finest mesh (bottom right).\relax }{figure.caption.6}{}}
\@writefile{lot}{\contentsline {table}{\numberline {2}{\ignorespaces Wetted area for all meshes and Richardson extrapolated area. Error is given in percentage of the Richardson extrapolated value. The Richardson extrapolated value was obtained using the three finest meshes and solving Equation\nobreakspace  {}\ref  {eq:richardson} using the Scientific Python optimize module \cite  {SciPy}.\relax }}{9}{table.caption.7}}
\newlabel{tab:mesh-result}{{2}{9}{Wetted area for all meshes and Richardson extrapolated area. Error is given in percentage of the Richardson extrapolated value. The Richardson extrapolated value was obtained using the three finest meshes and solving Equation~\ref {eq:richardson} using the Scientific Python optimize module \cite {SciPy}.\relax }{table.caption.7}{}}
\@writefile{toc}{\contentsline {section}{\numberline {4}Results and discussion}{9}{section.4}}
\@writefile{toc}{\contentsline {subsection}{\numberline {4.1}WSE hysteresis}{9}{subsection.4.1}}
\@writefile{lof}{\contentsline {figure}{\numberline {6}{\ignorespaces Hysteresis loop for $WSE_{norm}$ in validation points 1, 3, 5 and 7 given the measured scenarios in Figure\nobreakspace  {}\ref  {fig:measurements} and the simulated scenarios described in section\nobreakspace  {}\ref  {section:hysteresis}. \textbf  {(a)} Simulated hysteresis loop. The arrows indicate the direction of the process. \textbf  {(b)} Measured hysteresis loop.\relax }}{9}{figure.caption.8}}
\newlabel{fig:hysteresis}{{6}{9}{Hysteresis loop for $WSE_{norm}$ in validation points 1, 3, 5 and 7 given the measured scenarios in Figure~\ref {fig:measurements} and the simulated scenarios described in section~\ref {section:hysteresis}. \textbf {(a)} Simulated hysteresis loop. The arrows indicate the direction of the process. \textbf {(b)} Measured hysteresis loop.\relax }{figure.caption.8}{}}
\@writefile{lot}{\contentsline {table}{\numberline {3}{\ignorespaces Time for each leg of the hysteresis loop for $WSE_{norm}$ obtained from Figure\nobreakspace  {}\ref  {fig:hysteresis}. The time it takes for the $WSE$ to reach the new steady state is referred to as \textit  {increase time} and \textit  {decrease time} respectively. All units of time are in minutes.\relax }}{10}{table.caption.9}}
\newlabel{tab:hysteresis}{{3}{10}{Time for each leg of the hysteresis loop for $WSE_{norm}$ obtained from Figure~\ref {fig:hysteresis}. The time it takes for the $WSE$ to reach the new steady state is referred to as \textit {increase time} and \textit {decrease time} respectively. All units of time are in minutes.\relax }{table.caption.9}{}}
\@writefile{toc}{\contentsline {subsection}{\numberline {4.2}WSE dynamics with different scenarios}{10}{subsection.4.2}}
\@writefile{lof}{\contentsline {figure}{\numberline {7}{\ignorespaces WSE for the points 1, 2, 3 and 4 given the flow scenarios with 10, 20 and 30 flow changes per day. \textbf  {(a)} Validation point 1 (top left). \textbf  {(b)} Validation point 2 (top right). \textbf  {(c)} Validation point 3 (bottom left). \textbf  {(d)} Validation point 4 (bottom right.)\relax }}{11}{figure.caption.10}}
\newlabel{fig:wse_scenario_1}{{7}{11}{WSE for the points 1, 2, 3 and 4 given the flow scenarios with 10, 20 and 30 flow changes per day. \textbf {(a)} Validation point 1 (top left). \textbf {(b)} Validation point 2 (top right). \textbf {(c)} Validation point 3 (bottom left). \textbf {(d)} Validation point 4 (bottom right.)\relax }{figure.caption.10}{}}
\@writefile{lof}{\contentsline {figure}{\numberline {8}{\ignorespaces WSE for the points 1, 2, 3 and 4 given the flow scenarios with 40, 50 and 60 flow changes per day. \textbf  {(a)} Validation point 1 (top left). \textbf  {(b)} Validation point 2 (top right). \textbf  {(c)} Validation point 3 (bottom left). \textbf  {(d)} Validation point 4 (bottom right.)\relax }}{12}{figure.caption.11}}
\newlabel{fig:wse_scenario_2}{{8}{12}{WSE for the points 1, 2, 3 and 4 given the flow scenarios with 40, 50 and 60 flow changes per day. \textbf {(a)} Validation point 1 (top left). \textbf {(b)} Validation point 2 (top right). \textbf {(c)} Validation point 3 (bottom left). \textbf {(d)} Validation point 4 (bottom right.)\relax }{figure.caption.11}{}}
\@writefile{lof}{\contentsline {figure}{\numberline {9}{\ignorespaces WSE for the points 5, 6, 7 and 8 given the flow scenarios with 10, 20 and 30 flow changes per day. \textbf  {(a)} Validation point 1 (top left). \textbf  {(b)} Validation point 2 (top right). \textbf  {(c)} Validation point 3 (bottom left). \textbf  {(d)} Validation point 4 (bottom right.)\relax }}{12}{figure.caption.12}}
\newlabel{fig:wse_scenario_3}{{9}{12}{WSE for the points 5, 6, 7 and 8 given the flow scenarios with 10, 20 and 30 flow changes per day. \textbf {(a)} Validation point 1 (top left). \textbf {(b)} Validation point 2 (top right). \textbf {(c)} Validation point 3 (bottom left). \textbf {(d)} Validation point 4 (bottom right.)\relax }{figure.caption.12}{}}
\@writefile{lof}{\contentsline {figure}{\numberline {10}{\ignorespaces WSE for the points 5, 6, 7 and 8 given the flow scenarios with 40, 50 and 60 flow changes per day. \textbf  {(a)} Validation point 5 (top left). \textbf  {(b)} Validation point 6 (top right). \textbf  {(c)} Validation point 7 (bottom left). \textbf  {(d)} Validation point 8 (bottom right.)\relax }}{13}{figure.caption.13}}
\newlabel{fig:wse_scenario_4}{{10}{13}{WSE for the points 5, 6, 7 and 8 given the flow scenarios with 40, 50 and 60 flow changes per day. \textbf {(a)} Validation point 5 (top left). \textbf {(b)} Validation point 6 (top right). \textbf {(c)} Validation point 7 (bottom left). \textbf {(d)} Validation point 8 (bottom right.)\relax }{figure.caption.13}{}}
\@writefile{lof}{\contentsline {figure}{\numberline {11}{\ignorespaces Cross-section corresponding to the most upstream observation of continuous dynamics for the five different scenarios where it occurs. The legend is in flow changes per day.\relax }}{13}{figure.caption.14}}
\newlabel{fig:point_of_perpetual_dynamics}{{11}{13}{Cross-section corresponding to the most upstream observation of continuous dynamics for the five different scenarios where it occurs. The legend is in flow changes per day.\relax }{figure.caption.14}{}}
\@writefile{toc}{\contentsline {subsection}{\numberline {4.3}$A_{wetted}$ dynamics for the different scenarios}{13}{subsection.4.3}}
\@writefile{lof}{\contentsline {figure}{\numberline {12}{\ignorespaces Total wetted area dynamics for the six different scenarios. The legend is in flow changes per day.\relax }}{14}{figure.caption.15}}
\newlabel{fig:wetted-area}{{12}{14}{Total wetted area dynamics for the six different scenarios. The legend is in flow changes per day.\relax }{figure.caption.15}{}}
\@writefile{toc}{\contentsline {section}{\numberline {5}Conclusions}{14}{section.5}}
\bibdata{bibliography}
\bibcite{unfccc}{{1}{2016}{{UNFCCC}}{{}}}
\bibcite{regeringskansliet_2019}{{2}{2019}{{Regeringen}}{{}}}
\bibcite{environment_2020}{{3}{2020}{{Regjeringen}}{{}}}
\bibcite{finland}{{4}{2019}{{Ymp\IeC {\"a}rist\IeC {\"o}ministeri\IeC {\"o}}}{{}}}
\bibcite{eu_emission}{{5}{}{{European Comission}}{{}}}
\bibcite{renewable_ec}{{6}{2020}{{European~Comission}}{{}}}
\bibcite{nordic_grid}{{7}{}{{Statnet, Fingrid, Energinet, Svenska Kraftn\IeC {\"a}t}}{{}}}
\bibcite{north_sea_link}{{8}{}{{North Sea Link}}{{}}}
\bibcite{bunn2002basic}{{9}{2002}{{Bunn and Arthington}}{{}}}
\bibcite{saltveit2001field}{{10}{2001}{{Saltveit \em  {et~al.}}}{{Saltveit, Halleraker, Arnekleiv, and Harby}}}
\bibcite{halleraker2003factors}{{11}{2003}{{Halleraker \em  {et~al.}}}{{Halleraker, Saltveit, Harby, Arnekleiv, Fjeldstad, and Kohler}}}
\bibcite{mckinney2001rainbow}{{12}{2001}{{McKinney \em  {et~al.}}}{{McKinney, Speas, Rogers, and Persons}}}
\bibcite{choi2018impacts}{{13}{2018}{{Choi and Choi}}{{}}}
\bibcite{bejarano2018effects}{{14}{2018}{{Bejarano \em  {et~al.}}}{{Bejarano, Jansson, and Nilsson}}}
\@writefile{toc}{\contentsline {section}{References}{15}{section.5}}
\bibcite{gostner2011holistic}{{15}{2011}{{Gostner \em  {et~al.}}}{{Gostner, Lucarelli, Theiner, Kager, Premstaller, and Schleiss}}}
\bibcite{hydroflex}{{16}{}{{HydroFlex}}{{}}}
\bibcite{storli2019new}{{17}{2019}{{Storli and Lundstr{\"o}m}}{{}}}
\bibcite{burman2019inherent}{{18}{2019}{{Burman}}{{}}}
\bibcite{juarez2019performance}{{19}{2019}{{Ju{\'a}rez \em  {et~al.}}}{{Ju{\'a}rez, Adeva-Bustos, Alfredsen, and D{\o }nnum}}}
\bibcite{xie2018understanding}{{20}{2018}{{Xie \em  {et~al.}}}{{Xie, Yang, Lundstr{\"o}m, and Dai}}}
\bibcite{williams2013hydraulic}{{21}{2013}{{Williams \em  {et~al.}}}{{Williams, Brasington, Hicks, Measures, Rennie, and Vericat}}}
\bibcite{horstman2013modeling}{{22}{2013}{{Horstman \em  {et~al.}}}{{Horstman, Dohmen-Janssen, and Hulscher}}}
\bibcite{yunus2010fluid}{{23}{2014}{{Yunus}}{{}}}
\bibcite{ferziger2002computational}{{24}{2020}{{Ferziger \em  {et~al.}}}{{Ferziger, Peri{\'c}, and Street}}}
\bibcite{cushman2011introduction}{{25}{2011}{{Cushman-Roisin and Beckers}}{{}}}
\bibcite{deltares}{{26}{2014}{{Deltares}}{{}}}
\bibcite{richardson1911ix}{{27}{1911}{{Richardson}}{{}}}
\bibcite{celik2008procedure}{{28}{2008}{{Celik \em  {et~al.}}}{{Celik, Ghia, Roache, Freitas, Coleman, Raad, Celik, Freitas, and Coleman}}}
\bibcite{vattenfall}{{29}{}{{Vattenfall}}{{}}}
\bibcite{angele_validation}{{30}{2018}{{Angele and Andersson}}{{}}}
\bibcite{enns1997nonlinear}{{31}{1997}{{Enns \em  {et~al.}}}{{Enns, McGuire, and Greene}}}
\bibcite{Kumar2011}{{32}{2011}{{Kumar}}{{}}}
\bibcite{perumal2004reproduction}{{33}{2004}{{Perumal \em  {et~al.}}}{{Perumal, Shrestha, and Chaube}}}
\bibcite{norrbotten}{{34}{}{{L\IeC {\"a}nsstyrelsen i Norrbotten}}{{}}}
\bibcite{te1959open}{{35}{1959}{{Te}}{{}}}
\bibcite{bakken2016simulation}{{36}{2016}{{Bakken \em  {et~al.}}}{{Bakken, King, and Alfredsen}}}
\bibcite{quickin}{{37}{2018}{{Deltares}}{{}}}
\bibcite{SciPy}{{38}{2020}{{Scipy.org}}{{}}}
\newlabel{LastPage}{{}{17}{}{page.17}{}}
\xdef\lastpage@lastpage{17}
\xdef\lastpage@lastpageHy{17}
\expandafter\ifx\csname c@page@totc\endcsname\relax\newcounter{page@totc}\fi\setcounter{page@totc}{18}
