This is BibTeX, Version 0.99d (TeX Live 2017/Debian)
Capacity: max_strings=100000, hash_size=100000, hash_prime=85009
The top-level auxiliary file: poster.aux
The style file: unsrt.bst
Database file #1: sample.bib
You've used 3 entries,
            1791 wiz_defined-function locations,
            462 strings with 4214 characters,
and the built_in function-call counts, 809 in all, are:
= -- 65
> -- 39
< -- 1
+ -- 14
- -- 11
* -- 46
:= -- 124
add.period$ -- 9
call.type$ -- 3
change.case$ -- 3
chr.to.int$ -- 0
cite$ -- 3
duplicate$ -- 43
empty$ -- 81
format.name$ -- 11
if$ -- 186
int.to.chr$ -- 0
int.to.str$ -- 3
missing$ -- 3
newline$ -- 18
num.names$ -- 3
pop$ -- 16
preamble$ -- 1
purify$ -- 0
quote$ -- 0
skip$ -- 26
stack$ -- 0
substring$ -- 40
swap$ -- 16
text.length$ -- 1
text.prefix$ -- 0
top$ -- 0
type$ -- 0
warning$ -- 0
while$ -- 6
width$ -- 4
write$ -- 33
