\relax 
\providecommand\hyper@newdestlabel[2]{}
\providecommand\HyperFirstAtBeginDocument{\AtBeginDocument}
\HyperFirstAtBeginDocument{\ifx\hyper@anchor\@undefined
\global\let\oldcontentsline\contentsline
\gdef\contentsline#1#2#3#4{\oldcontentsline{#1}{#2}{#3}}
\global\let\oldnewlabel\newlabel
\gdef\newlabel#1#2{\newlabelxx{#1}#2}
\gdef\newlabelxx#1#2#3#4#5#6{\oldnewlabel{#1}{{#2}{#3}}}
\AtEndDocument{\ifx\hyper@anchor\@undefined
\let\contentsline\oldcontentsline
\let\newlabel\oldnewlabel
\fi}
\fi}
\global\let\hyper@last\relax 
\gdef\HyperFirstAtBeginDocument#1{#1}
\providecommand\HyField@AuxAddToFields[1]{}
\providecommand\HyField@AuxAddToCoFields[2]{}
\@writefile{nav}{\headcommand {\slideentry {0}{0}{1}{1/1}{}{0}}}
\@writefile{nav}{\headcommand {\beamer@framepages {1}{1}}}
\providecommand*\caption@xref[2]{\@setref\relax\@undefined{#1}}
\newlabel{fig:reach}{{1}{2}{Ume river in proximity of Stornorrfors.\relax }{Doc-Start}{}}
\@writefile{snm}{\beamer@slide {fig:reach}{2}}
\newlabel{fig:stornorrfors}{{2}{2}{"Laxhoppet" in Stornorrfors\relax }{Doc-Start}{}}
\@writefile{snm}{\beamer@slide {fig:stornorrfors}{2}}
\@writefile{nav}{\headcommand {\slideentry {0}{0}{2}{2/2}{}{0}}}
\@writefile{nav}{\headcommand {\beamer@framepages {2}{2}}}
\newlabel{fig:normalized_water_level_contour}{{3}{3}{Contour plot of transient response.\relax }{Doc-Start}{}}
\@writefile{snm}{\beamer@slide {fig:normalized_water_level_contour}{3}}
\newlabel{fig:surface_plot}{{4}{3}{Surface plot of transient response.\relax }{Doc-Start}{}}
\@writefile{snm}{\beamer@slide {fig:surface_plot}{3}}
\newlabel{fig:transient-area}{{5}{3}{Water area as a function of time.\relax }{Doc-Start}{}}
\@writefile{snm}{\beamer@slide {fig:transient-area}{3}}
\@writefile{nav}{\headcommand {\slideentry {0}{0}{3}{3/3}{}{0}}}
\@writefile{nav}{\headcommand {\beamer@framepages {3}{3}}}
\@writefile{nav}{\headcommand {\beamer@partpages {1}{3}}}
\@writefile{nav}{\headcommand {\beamer@subsectionpages {1}{3}}}
\@writefile{nav}{\headcommand {\beamer@sectionpages {1}{3}}}
\@writefile{nav}{\headcommand {\beamer@documentpages {3}}}
\@writefile{nav}{\headcommand {\gdef \inserttotalframenumber {3}}}
