\begin{thebibliography}{1}

\bibitem{andersson2018}
Anders~G. Andersson and Kristian Angele.
\newblock Validation of a hec-ras model of the stornorrfors fish migration dry
  reach against new field data.
\newblock {\em 12th International Symposium on Ecohydraulics}, August 2018.

\bibitem{burman2019inherent}
Anton~J. Burman, Anders~G. Andersson, and J.~Gunnar~I. Hellstrom.
\newblock Inherent damping in a partially dry river.
\newblock In {\em 38th IAHR World Congress, Panama City, September 1-6, 2019},
  pages 5091--5100, 2019.

\bibitem{hellstrom2016simulation}
Gunnar Hellstr{\"o}m, Anders Andersson, Kjell Leonardsson, Henrik Lycksam,
  Staffan Lundstr{\"o}m, and Hans Lundqvist.
\newblock Simulation and experiments of entrance flow conditions to a fishway.
\newblock In {\em International Symposium on Ecohydraulics:
  07/02/2016-12/02/2016}, 2016.

\end{thebibliography}
